UCV EconomíaR4DS – Ciencia de Datos para Economistas
…
# A tibble: 3 × 6
  country   continent  year lifeExp      pop gdpPercap
  <chr>     <chr>     <dbl>   <dbl>    <dbl>     <dbl>
1 Venezuela Americas   1997    72.1 22374398    10165.
2 Venezuela Americas   2002    72.8 24287670     8605.
3 Venezuela Americas   2007    73.7 26084662    11416.

Filter por dos criterios sobre un mismo atributo

df_gapminder%>%
  filter(country=='Venezuela' | country =='Colombia')

# A tibble: 24 × 6
   country  continent  year lifeExp      pop gdpPercap
   <chr>    <chr>     <dbl>   <dbl>    <dbl>     <dbl>
 1 Colombia Americas   1952    50.6 12350771     2144.
 2 Colombia Americas   1957    55.1 14485993     2324.
 3 Colombia Americas   1962    57.9 17009885     2492.
 4 Colombia Americas   1967    60.0 19764027     2679.
 5 Colombia Americas   1972    61.6 22542890     3265.
 6 Colombia Americas   1977    63.8 25094412     3816.
 7 Colombia Americas   1982    66.7 27764644     4398.
 8 Colombia Americas   1987    67.8 30964245     4903.
 9 Colombia Americas   1992    68.4 34202721     5445.
10 Colombia Americas   1997    70.3 37657830     6117.
# ℹ 14 more rows
…
Filter con la función %in%

Se filtran elementos que se encuentran en un vector que en este caso es c('Colombia','Venezuela')

df_gapminder%>%
  filter(country %in% c('Colombia','Venezuela'))

# A tibble: 24 × 6
   country  continent  year lifeExp      pop gdpPercap
   <chr>    <chr>     <dbl>   <dbl>    <dbl>     <dbl>
 1 Colombia Americas   1952    50.6 12350771     2144.
 2 Colombia Americas   1957    55.1 14485993     2324.
 3 Colombia Americas   1962    57.9 17009885     2492.
 4 Colombia Americas   1967    60.0 19764027     2679.
 5 Colombia Americas   1972    61.6 22542890     3265.
 6 Colombia Americas   1977    63.8 25094412     3816.
 7 Colombia Americas   1982    66.7 27764644     4398.
 8 Colombia Americas   1987    67.8 30964245     4903.
 9 Colombia Americas   1992    68.4 34202721     5445.
10 Colombia Americas   1997    70.3 37657830     6117.
# ℹ 14 more rows
…
Reordenar datos basado en un criterio arrange

df_gapminder%>%
  filter(continent==continentes[4])%>%
  arrange(gdpPercap)

# A tibble: 300 × 6
   country            continent  year lifeExp     pop gdpPercap
   <chr>              <chr>     <dbl>   <dbl>   <dbl>     <dbl>
 1 Haiti              Americas   2007    60.9 8502814     1202.
 2 Haiti              Americas   2002    58.1 7607651     1270.
 3 Haiti              Americas   1997    56.7 6913545     1342.
 4 Dominican Republic Americas   1952    45.9 2491346     1398.
 5 Haiti              Americas   1967    46.2 4318137     1452.
 6 Haiti              Americas   1992    55.1 6326682     1456.
 7 Dominican Republic Americas   1957    49.8 2923186     1544.
 8 Dominican Republic Americas   1967    56.8 4049146     1654.
 9 Haiti              Americas   1972    48.0 4698301     1654.
10 Dominican Republic Americas   1962    53.5 3453434     1662.
# ℹ 290 more rows

ojo con la sobreescritura

Reordenar en forma descendente desc()

df_gapminder%>%
  filter(continent==continentes[4])%>%
  arrange(desc(gdpPercap))

# A tibble: 300 × 6
   country       continent  year lifeExp       pop gdpPercap
   <chr>         <chr>     <dbl>   <dbl>     <dbl>     <dbl>
 1 United States Americas   2007    78.2 301139947    42952.
 2 United States Americas   2002    77.3 287675526    39097.
 3 Canada        Americas   2007    80.7  33390141    36319.
 4 United States Americas   1997    76.8 272911760    35767.
 5 Canada        Americas   2002    79.8  31902268    33329.
 6 United States Americas   1992    76.1 256894189    32004.
 7 United States Americas   1987    75.0 242803533    29884.
 8 Canada        Americas   1997    78.6  30305843    28955.
 9 Canada        Americas   1987    76.9  26549700    26627.
10 Canada        Americas   1992    78.0  28523502    26343.
# ℹ 290 more rows
…
