Clase 13- Agrupamientos, Reframes, RL – UCV EconomíaR4DS
…
4) Añadir índice general e índice por grupo

df_gapminder_csv%>%
  select(country, year, pop)%>%
  mutate(idx_gral= 1:n())%>% # índice general v1
  mutate(idx_gral2 =1:nrow(.))%>% # índice general v2
  mutate(idx_gral3 =row_number())%>% # índice general v3
  group_by(country)%>%
  mutate(idx_group1= row_number())%>%
  mutate(idx_group2= 1:n())%>%
  # mutate(idx_group3= 1:nrow(.))%>%
  print(n=25)

# A tibble: 1,704 × 8
# Groups:   country [142]
   country      year      pop idx_gral idx_gral2 idx_gral3 idx_group1 idx_group2
   <chr>       <int>    <int>    <int>     <int>     <int>      <int>      <int>
 1 Afghanistan  1952  8425333        1         1         1          1          1
 2 Afghanistan  1957  9240934        2         2         2          2          2
 3 Afghanistan  1962 10267083        3         3         3          3          3
 4 Afghanistan  1967 11537966        4         4         4          4          4
 5 Afghanistan  1972 13079460        5         5         5          5          5
 6 Afghanistan  1977 14880372        6         6         6          6          6
 7 Afghanistan  1982 12881816        7         7         7          7          7
 8 Afghanistan  1987 13867957        8         8         8          8          8
 9 Afghanistan  1992 16317921        9         9         9          9          9
10 Afghanistan  1997 22227415       10        10        10         10         10
11 Afghanistan  2002 25268405       11        11        11         11         11
12 Afghanistan  2007 31889923       12        12        12         12         12
13 Albania      1952  1282697       13        13        13          1          1
14 Albania      1957  1476505       14        14        14          2          2
15 Albania      1962  1728137       15        15        15          3          3
16 Albania      1967  1984060       16        16        16          4          4
17 Albania      1972  2263554       17        17        17          5          5
18 Albania      1977  2509048       18        18        18          6          6
19 Albania      1982  2780097       19        19        19          7          7
20 Albania      1987  3075321       20        20        20          8          8
21 Albania      1992  3326498       21        21        21          9          9
22 Albania      1997  3428038       22        22        22         10         10
23 Albania      2002  3508512       23        23        23         11         11
24 Albania      2007  3600523       24        24        24         12         12
25 Algeria      1952  9279525       25        25        25          1          1
# ℹ 1,679 more rows
…
Tener muy claro cuando tienen un efecto distinto o el mismo

6) obtener por país maximo gdp indicando el año en que lo tuvo

6.1) Aproximaciones para resolver el problema

6.1.1)

df_gapminder_csv%>%
  group_by(country)%>%
  reframe(valor=max(gdpPercap))

# A tibble: 142 × 2
   country      valor
   <chr>        <dbl>
 1 Afghanistan   978.
 2 Albania      5937.
 3 Algeria      6223.
 4 Angola       5523.
 5 Argentina   12779.
 6 Australia   34435.
 7 Austria     36126.
 8 Bahrain     29796.
 9 Bangladesh   1391.
10 Belgium     33693.
# ℹ 132 more rows

6.1.2)

df_gapminder_csv %>% 
  group_by(country) %>% 
  reframe(max_gdp = max(gdpPercap), year, gdpPercap) %>% 
  arrange(desc(max_gdp))%>%
  print(n=36) 

# A tibble: 1,704 × 4
   country   max_gdp  year gdpPercap
   <chr>       <dbl> <int>     <dbl>
 1 Kuwait    113523.  1952   108382.
 2 Kuwait    113523.  1957   113523.
 3 Kuwait    113523.  1962    95458.
 4 Kuwait    113523.  1967    80895.
 5 Kuwait    113523.  1972   109348.
 6 Kuwait    113523.  1977    59265.
 7 Kuwait    113523.  1982    31354.
 8 Kuwait    113523.  1987    28118.
 9 Kuwait    113523.  1992    34933.
10 Kuwait    113523.  1997    40301.
11 Kuwait    113523.  2002    35110.
12 Kuwait    113523.  2007    47307.
13 Norway     49357.  1952    10095.
14 Norway     49357.  1957    11654.
15 Norway     49357.  1962    13450.
16 Norway     49357.  1967    16362.
17 Norway     49357.  1972    18965.
18 Norway     49357.  1977    23311.
19 Norway     49357.  1982    26299.
20 Norway     49357.  1987    31541.
21 Norway     49357.  1992    33966.
22 Norway     49357.  1997    41283.
23 Norway     49357.  2002    44684.
24 Norway     49357.  2007    49357.
25 Singapore  47143.  1952     2315.
26 Singapore  47143.  1957     2843.
27 Singapore  47143.  1962     3675.
28 Singapore  47143.  1967     4977.
29 Singapore  47143.  1972     8598.
30 Singapore  47143.  1977    11210.
31 Singapore  47143.  1982    15169.
32 Singapore  47143.  1987    18862.
33 Singapore  47143.  1992    24770.
34 Singapore  47143.  1997    33519.
35 Singapore  47143.  2002    36023.
36 Singapore  47143.  2007    47143.
# ℹ 1,668 more rows

6.2) Mezcla RBase (which.max) con dplyr

df_gapminder_csv%>%
  group_by(country)%>%
  reframe(valor=max(gdpPercap),
          year_max_gdpPercap = year[which.max(gdpPercap)])%>%
  arrange(desc(valor))#%>%

# A tibble: 142 × 3
   country            valor year_max_gdpPercap
   <chr>              <dbl>              <int>
 1 Kuwait           113523.               1957
 2 Norway            49357.               2007
 3 Singapore         47143.               2007
 4 United States     42952.               2007
 5 Ireland           40676.               2007
 6 Hong Kong, China  39725.               2007
 7 Switzerland       37506.               2007
 8 Netherlands       36798.               2007
 9 Canada            36319.               2007
10 Iceland           36181.               2007
# ℹ 132 more rows

  # filter(year_max_gdpPercap!=2007)

6.3) Enfoque alternativo con mezcla RBase (which) con dplyr

df_gapminder_csv%>%
  group_by(country)%>%
  reframe(valor=max(gdpPercap),
          year_max_gdpPercap = year[which(gdpPercap==max(gdpPercap))])%>%
  arrange(desc(valor))%>%
  filter(year_max_gdpPercap!=2007)

# A tibble: 40 × 3
   country        valor year_max_gdpPercap
   <chr>          <dbl>              <int>
 1 Kuwait       113523.               1957
 2 Saudi Arabia  34168.               1977
 3 Libya         21951.               1977
 4 Gabon         21746.               1977
 5 Serbia        15871.               1987
 6 Iraq          14688.               1977
 7 Venezuela     13144.               1977
 8 Iran          11889.               1977
 9 Montenegro    11733.               1987
10 Jamaica        7434.               1972
# ℹ 30 more rows

6.4) Enfoque con con filter

df_gapminder_csv%>%
  group_by(country)%>%
  filter(gdpPercap==max(gdpPercap))%>%
  select(country, year, gdpPercap)%>%
  arrange(desc(gdpPercap))%>%
  filter(year!=2007)

# A tibble: 40 × 3
# Groups:   country [40]
   country       year gdpPercap
   <chr>        <int>     <dbl>
 1 Kuwait        1957   113523.
 2 Saudi Arabia  1977    34168.
 3 Libya         1977    21951.
 4 Gabon         1977    21746.
 5 Serbia        1987    15871.
 6 Iraq          1977    14688.
 7 Venezuela     1977    13144.
 8 Iran          1977    11889.
 9 Montenegro    1987    11733.
10 Jamaica       1972     7434.
# ℹ 30 more rows
…
